nycflights13数据预处理
…
显示每个目的地机场的平均延误时间

result_4  #显示每个目的地机场的平均延误时间

## # A tibble: 100 x 2
##     dest mean_delay
##    <chr>      <dbl>
##  1   ABQ   17.66535
##  2   ACK   11.26515
##  3   ALB   22.91866
##  4   ANC    7.75000
##  5   ATL   17.83566
##  6   AUS   16.56574
##  7   AVL   14.06513
##  8   BDL   16.87621
##  9   BGR   19.38547
## 10   BHM   27.01487
## # ... with 90 more rows
…
